** 0 Envelope.Header
Value: 
Keyword: 
Important: Header
0: ('MeetingRoom.x.RoomName.EN-US', 0.023733028024435044)
1: ('ContactInfo.x.Address.x.PostalCode', 0.017875165119767188)
2: ('Image.x.Width', 0.013242718577384948)
3: ('PetsPolicy.x.NonRefundableFee', 0.011186720430850982)
4: ('ReferencePoint.x.RefPointName.EN-US', 0.006502118334174156)
5: ('GuestRoom.x.Type.x.Size', 0.006008694693446159)
6: ('OTA.GuestRoom.x.Amenity.x.RoomAmenityCode', 0.005795214883983135)
7: ('MeetingRoom.x.Format.x.Capacity', 0.005313351564109325)
8: ('GuestRoom.x.Image.x.Width', 0.005205114372074604)
9: ('MeetingRoom.LargestSpace', 0.004965507052838802)
10: ('ContactInfo.x.Phone.x.AreaCityCode', 0.004541383590549231)
11: ('OTA.MeetingRoom.x.Code.x.MeetingRoomCode', 0.004442818835377693)

** 1 Envelope.Body.OTA_HotelDescriptiveInfoRS.Target
Value: Production
Keyword: (ota,0.25)(descriptive,0.25)(info,0.25)
Important: Target
0: ('ReferencePoint.x.RefPointName.EN-US', 0.23143488764762876)
1: ('OTA.HotelStatusCode', 0.21)
2: ('OTA.HotelCategory.x.HotelCategoryCode', 0.175)
3: ('OTA.Service.x.HotelAmenityCode', 0.175)
4: ('OTA.GuestRoomInfo.x.GuestRoomInfoCode', 0.16499999999999998)
5: ('OTA.OtherHotel.x.SegmentTypeCode', 0.16499999999999998)
6: ('OTA.Restaurant.x.InfoCode.x.TypeCode', 0.16499999999999998)
7: ('OTA.ContactInfo.x.Address.x.AddressUseTypeCode', 0.15749999999999997)
8: ('OTA.ContactInfo.x.Email.x.EmailTypeCode', 0.15749999999999997)
9: ('OTA.ContactInfo.x.Phone.x.PhoneTechTypeCode', 0.15749999999999997)
10: ('Recreation.x.Descriptive.EN-US', 0.15749999999999997)
11: ('OTA.ContactInfo.x.Phone.x.PhoneLocationTypeCode', 0.15166666666666667)

** 2 Envelope.Body.OTA_HotelDescriptiveInfoRS.PrimaryLangID
Value: EN-US
Keyword: (primary,0.7191780821917809)(id,0.23972602739726032)(ota,0.010273972602739727)
Important: PrimaryLangID
0: ('AltDescription.x.ApplicableStart', 0.3)
1: ('Language.x.PrimaryLanguageInd', 0.22102739726027396)
2: ('ReferencePoint.x.Primary', 0.22102739726027396)
3: ('Attraction.x.ID', 0.15534246575342464)
4: ('GuestRoom.x.ID', 0.15534246575342464)
5: ('MeetingRoom.x.ID', 0.15534246575342464)
6: ('Recreation.x.ID', 0.15534246575342464)
7: ('Restaurant.x.ID', 0.15534246575342464)
8: ('Service.x.ID', 0.15534246575342464)
9: ('Hotel.Context.XXX.ID', 0.13649999999999998)
10: ('PolicyInfo.KidsStayFree', 0.12249999999999998)
11: ('AltDescription.x.ID', 0.12034246575342464)

** 3 Envelope.Body.OTA_HotelDescriptiveInfoRS.Version
Value: 4.0
Keyword: (ota,0.25)(descriptive,0.25)(info,0.25)
Important: Version
0: ('ContactInfo.x.Email.x.MailAddress', 0.39439768266677855)
1: ('OTA.HotelStatusCode', 0.21)
2: ('OTA.HotelCategory.x.HotelCategoryCode', 0.175)
3: ('OTA.Service.x.HotelAmenityCode', 0.175)
4: ('OTA.GuestRoomInfo.x.GuestRoomInfoCode', 0.16499999999999998)
5: ('OTA.OtherHotel.x.SegmentTypeCode', 0.16499999999999998)
6: ('OTA.Restaurant.x.InfoCode.x.TypeCode', 0.16499999999999998)
7: ('OTA.ContactInfo.x.Address.x.AddressUseTypeCode', 0.15749999999999997)
8: ('OTA.ContactInfo.x.Email.x.EmailTypeCode', 0.15749999999999997)
9: ('OTA.ContactInfo.x.Phone.x.PhoneTechTypeCode', 0.15749999999999997)
10: ('Recreation.x.Descriptive.EN-US', 0.15749999999999997)
11: ('OTA.ContactInfo.x.Phone.x.PhoneLocationTypeCode', 0.15166666666666667)

** 4 Envelope.Body.OTA_HotelDescriptiveInfoRS.TimeStamp
Value: 2018-12-18T10:47:47.047
Keyword: (time,0.6363636363636364)(ota,0.0909090909090909)(descriptive,0.0909090909090909)
Important: TimeStamp
0: ('Location.Longitude', 0.3)
1: ('PolicyInfo.CheckInTime', 0.22272727272727272)
2: ('PolicyInfo.CheckOutTime', 0.22272727272727272)
3: ('TimeZone.Code', 0.20363636363636362)
4: ('GuaranteePayment.x.HoldTime', 0.1861363636363636)
5: ('GuaranteePayment.x.OffsetDropTime', 0.1861363636363636)
6: ('GuaranteePayment.x.OffsetTimeUnit', 0.1861363636363636)
7: ('Image.x.LastModifyDateTime', 0.1861363636363636)
8: ('Recreation.x.Schedule.x.Time.x.End', 0.1861363636363636)
9: ('Recreation.x.Schedule.x.Time.x.Fri', 0.1861363636363636)
10: ('Recreation.x.Schedule.x.Time.x.Mon', 0.1861363636363636)
11: ('Recreation.x.Schedule.x.Time.x.Sat', 0.1861363636363636)

** 5 Envelope.Body.OTA_HotelDescriptiveInfoRS.Success
Value: 
Keyword: (ota,0.25)(descriptive,0.25)(info,0.25)
Important: Success
0: ('OTA.HotelStatusCode', 0.21000296204289043)
1: ('OTA.Service.x.HotelAmenityCode', 0.17791491635143755)
2: ('OTA.HotelCategory.x.HotelCategoryCode', 0.1750410937645938)
3: ('OTA.OtherHotel.x.SegmentTypeCode', 0.16516529017011633)
4: ('OTA.GuestRoomInfo.x.GuestRoomInfoCode', 0.16513362342724575)
5: ('OTA.Restaurant.x.InfoCode.x.TypeCode', 0.16505147813499205)
6: ('OTA.ContactInfo.x.Address.x.AddressUseTypeCode', 0.15823903820011762)
7: ('Recreation.x.Descriptive.EN-US', 0.15767390697612424)
8: ('OTA.ContactInfo.x.Email.x.EmailTypeCode', 0.15759372151689602)
9: ('OTA.ContactInfo.x.Phone.x.PhoneTechTypeCode', 0.1575006264950798)
10: ('OTA.ContactInfo.x.Phone.x.PhoneLocationTypeCode', 0.15166850249732003)
11: ('MeetingRoom.TotalSpace', 0.1237076430954039)

** 6 Envelope.Body.OTA_HotelDescriptiveInfoRS.HotelDescriptiveContents.HotelDescriptiveContent.HotelName
Value: Best Western Grand Hotel Le Touquet
Keyword: (hotelname,0.7142857142857145)(name,0.20408163265306128)(ota,0.02040816326530613)
Important: HotelName
0: ('Name.EN-US', 0.5528571428571428)
1: ('OtherHotel.x.HotelName.EN-US', 0.3546428571428572)
2: ('GDS_Info.x.GDS_Name', 0.1871428571428571)
3: ('ContactInfo.x.CompanyName.EN-US', 0.15214285714285714)
4: ('BrandName.EN-US', 0.14785714285714285)
5: ('ChainName.EN-US', 0.14785714285714285)
6: ('Recreation.x.Name.EN-US', 0.14785714285714285)
7: ('Restaurant.x.Name.EN-US', 0.14785714285714285)
8: ('ShortName.EN-US', 0.14785714285714285)
9: ('ContactInfo.x.Address.x.CityName.EN-US', 0.13114285714285714)
10: ('ContactInfo.x.Address.x.StateName.EN-US', 0.13114285714285714)
11: ('ContactInfo.x.CompanyName.Department.EN-US', 0.13114285714285714)

** 7 Envelope.Body.OTA_HotelDescriptiveInfoRS.HotelDescriptiveContents.HotelDescriptiveContent.ChainCode
Value: BW
Keyword: (chaincode,0.9127382146439319)(code,0.03510531594784354)(ota,0.01303911735205617)
Important: ChainCode
0: ('GDS_Info.x.ChainCode', 0.6392948048665051)
1: ('OtherHotel.x.ChainCode', 0.6392853560682046)
2: ('GDS_Info.MasterChainCode', 0.3277853634580656)
3: ('CheckoutCharge.Percent', 0.2939450562000275)
4: ('Hotel.Context.XXX.ChainCode (XXX = HILTON)', 0.29178535607641654)
5: ('OTA.HotelStatusCode', 0.1703485456369107)
6: ('OTA.HotelCategory.x.HotelCategoryCode', 0.11784854563691073)
7: ('OTA.Service.x.HotelAmenityCode', 0.11784854563691073)
8: ('GDS_Info.x.GDS_PropertyCode', 0.11511034996267301)
9: ('OTA.Attraction.x.ProximityCode', 0.11511033100150769)
10: ('HotelCategory.x.CodeDetail.EN-US', 0.11511033099297893)
11: ('HotelCityCode', 0.11511033099297893)

** 8 Envelope.Body.OTA_HotelDescriptiveInfoRS.HotelDescriptiveContents.HotelDescriptiveContent.HotelCode
Value: 93825
Keyword: (hotelcode,0.8394833948339485)(code,0.06457564575645758)(ota,0.02398523985239853)
Important: HotelCode
0: ('OtherHotel.x.HotelCode', 0.6323892988929889)
1: ('Location.Latitude', 0.3)
2: ('OtherHotel.x.HotelCodeContext', 0.27363929889298894)
3: ('OTA.HotelStatusCode', 0.18113468634686344)
4: ('OTA.HotelCategory.x.HotelCategoryCode', 0.12863468634686348)
5: ('OTA.Service.x.HotelAmenityCode', 0.12863468634686348)
6: ('GDS_Info.x.ChainCode', 0.12359778597785977)
7: ('GDS_Info.x.GDS_PropertyCode', 0.12359778597785977)
8: ('HotelCategory.x.CodeDetail.EN-US', 0.12359778597785977)
9: ('HotelCityCode', 0.12359778597785977)
10: ('OTA.Attraction.x.ProximityCode', 0.12359778597785977)
11: ('OTA.MeetingRoom.x.Code.x.MeetingRoomCode', 0.12359778597785977)

** 9 Envelope.Body.OTA_HotelDescriptiveInfoRS.HotelDescriptiveContents.HotelDescriptiveContent.HotelCodeContext
Value: BESTWESTERN
Keyword: (hotelcodecontext,0.2687735361441335)(codecontext,0.2687735361441335)(context,0.2687735361441335)
Important: HotelCodeContext
0: ('OtherHotel.x.HotelCodeContext', 0.6713310381747027)
1: ('Promotion.x.Tag.x.Text.EN-US', 0.3770133198120037)
2: ('GuestRoom.x.CodeContext', 0.2901110536808683)
3: ('Hotel.Context.xxx.BrandCode', 0.2064749316990327)
4: ('Hotel.Context.XXX.ID', 0.19030406852255383)
5: ('OtherHotel.x.HotelCode', 0.18869840508011518)
6: ('Hotel.Context.XXX.ChainCode (XXX = HILTON)', 0.18647493169904064)
7: ('Hotel.Context.XXX.RatePlan.x.RatePlanCode', 0.18647493169903268)
8: ('Hotel.Context.XXX.RatePlan.x.Description.EN-US', 0.16930406852587132)
9: ('Hotel.Context.XXX.RatePlan.x.Tag.x.Text.EN-US', 0.16930406852253957)
10: ('OTA.HotelStatusCode', 0.16128350439341355)
11: ('Hotel.Context.XXX.RatePlan.x.RatePlanName.EN-US', 0.15430406852248568)

** 10 Envelope.Body.OTA_HotelDescriptiveInfoRS.HotelDescriptiveContents.HotelDescriptiveContent.LanguageCode
Value: EN-US
Keyword: (language,0.9127382146439319)(code,0.03510531594784354)(ota,0.01303911735205617)
Important: LanguageCode
0: ('Language.x.Code', 0.4090471414242728)
1: ('AltDescription.x.ApplicableStart', 0.3)
2: ('Language.x.PrimaryLanguageInd', 0.26167502507522566)
3: ('OTA.HotelStatusCode', 0.1703485456369107)
4: ('OTA.HotelCategory.x.HotelCategoryCode', 0.11784854563691073)
5: ('OTA.Service.x.HotelAmenityCode', 0.11784854563691073)
6: ('GDS_Info.x.ChainCode', 0.11511033099297893)
7: ('GDS_Info.x.GDS_PropertyCode', 0.11511033099297893)
8: ('HotelCategory.x.CodeDetail.EN-US', 0.11511033099297893)
9: ('HotelCityCode', 0.11511033099297893)
10: ('OTA.Attraction.x.ProximityCode', 0.11511033099297893)
11: ('OTA.MeetingRoom.x.Code.x.MeetingRoomCode', 0.11511033099297893)

** 11 Envelope.Body.OTA_HotelDescriptiveInfoRS.HotelDescriptiveContents.HotelDescriptiveContent.BrandCode
Value: BEST
Keyword: (brandcode,0.9127382146439319)(code,0.03510531594784354)(ota,0.01303911735205617)
Important: BrandCode
0: ('OtherHotel.x.BrandCode', 0.6392853560682046)
1: ('Hotel.Context.xxx.BrandCode', 0.5867853654424393)
2: ('GuaranteePayment.x.Type', 0.18250109553337096)
3: ('OTA.HotelStatusCode', 0.1703485456369107)
4: ('Recreation.x.RecreationDetail.x.CodeDetail.EN-US', 0.15413727035314412)
5: ('OTA.HotelCategory.x.HotelCategoryCode', 0.11784854563691073)
6: ('OTA.Service.x.HotelAmenityCode', 0.11784854563691073)
7: ('GDS_Info.x.ChainCode', 0.11511425460987484)
8: ('GDS_Info.x.GDS_PropertyCode', 0.11511036868945101)
9: ('OTA.Attraction.x.ProximityCode', 0.115110330995365)
10: ('HotelCategory.x.CodeDetail.EN-US', 0.11511033099297893)
11: ('HotelCityCode', 0.11511033099297893)

** 12 Envelope.Body.OTA_HotelDescriptiveInfoRS.HotelDescriptiveContents.HotelDescriptiveContent.CurrencyCode
Value: EUR
Keyword: (currencycode,0.9127382146439319)(code,0.03510531594784354)(ota,0.01303911735205617)
Important: CurrencyCode
0: ('CurrencyCode', 0.6890471414242728)
1: ('MeetingRoom.x.Code.x.Charge.CurrencyCode', 0.5840471491068543)
2: ('GuaranteePayment.x.CurrencyCode', 0.5840471473511366)
3: ('CheckoutCharge.CurrencyCode', 0.5840471414253914)
4: ('CommissionPolicy.CurrencyCode', 0.5630471423320226)
5: ('Service.x.Feature.x.Charge.CurrencyCode', 0.5630471414242731)
6: ('CancelPolicy.x.CurrencyCode', 0.5630471414242728)
7: ('FeePolicy.x.CurrencyCode', 0.5630471414242728)
8: ('PetsPolicy.x.CurrencyCode', 0.5630471414242728)
9: ('Recreation.x.Schedule.x.Charge.x.CurrencyCode', 0.5630471414242728)
10: ('ReferencePoint.x.Transportation.x.CurrencyCode', 0.5630471414242728)
11: ('TaxPolicy.x.CurrencyCode', 0.5630471414242728)

** 13 Envelope.Body.OTA_HotelDescriptiveInfoRS.HotelDescriptiveContents.HotelDescriptiveContent.HotelInfo.HotelName
Value: Best Western Grand Hotel Le Touquet
Keyword: (hotelname,0.7142857142857145)(name,0.20408163265306128)(ota,0.02040816326530613)
Important: HotelName
0: ('Name.EN-US', 0.5528571428571428)
1: ('OtherHotel.x.HotelName.EN-US', 0.3546428571428572)
2: ('GDS_Info.x.GDS_Name', 0.1871428571428571)
3: ('ContactInfo.x.CompanyName.EN-US', 0.15214285714285714)
4: ('BrandName.EN-US', 0.14785714285714285)
5: ('ChainName.EN-US', 0.14785714285714285)
6: ('Recreation.x.Name.EN-US', 0.14785714285714285)
7: ('Restaurant.x.Name.EN-US', 0.14785714285714285)
8: ('ShortName.EN-US', 0.14785714285714285)
9: ('ContactInfo.x.Address.x.CityName.EN-US', 0.13114285714285714)
10: ('ContactInfo.x.Address.x.StateName.EN-US', 0.13114285714285714)
11: ('ContactInfo.x.CompanyName.Department.EN-US', 0.13114285714285714)

** 14 Envelope.Body.OTA_HotelDescriptiveInfoRS.HotelDescriptiveContents.HotelDescriptiveContent.HotelInfo.Descriptions.DescriptiveText
Value: The Best Western Grand Hotel Le Touquet is a trend...
Keyword: (descriptivetext,0.46018991964937916)(text,0.23009495982468958)(description,0.20452885317750183)
Important: DescriptiveText
0: ('PetsPolicy.x.Description.EN-US', 0.39545105916727535)
1: ('Restaurant.x.DescriptiveText.EN-US', 0.3079821037325)
2: ('Attraction.x.DescriptiveText.EN-US', 0.3079821037253469)
3: ('Renovation.x.DescriptiveText.EN-US', 0.3079821037253469)
4: ('GuestRoom.x.Amenity.x.DescriptiveText.EN-US', 0.276482103725347)
5: ('GuestRoom.x.Feature.x.DescriptiveText.EN-US', 0.276482103725347)
6: ('ReferencePoint.x.DescriptiveText.EN-US', 0.276482103725347)
7: ('Description.EN-US', 0.2529510591672754)
8: ('Hotel.Context.XXX.RatePlan.x.Description.EN-US', 0.20179327976625275)
9: ('AltDescription.x.Tag.x.Text.EN-US', 0.1962710007304602)
10: ('EnviroImpact.Energy.Description.x.Text.EN-US', 0.1962710007304602)
11: ('EnviroImpact.Recycling.Description.x.Text.EN-US', 0.1962710007304602)

** 15 Envelope.Body.OTA_HotelDescriptiveInfoRS.HotelDescriptiveContents.HotelDescriptiveContent.HotelInfo.Position.Latitude
Value: 50.526834
Keyword: (latitude,0.6239870340356564)(position,0.3119935170178282)(po,0.028363047001620748)
Important: Latitude
0: ('Location.Latitude', 0.8160372771474877)
1: ('ReferencePoint.x.Latitude', 0.5569935170178281)
2: ('Attraction.x.RefPoint.x.Latitude', 0.5219935170178281)
3: ('OTA.Position.PositionAccuracyCode', 0.19934683954619123)
4: ('OTA.ReferencePoint.x.PositionAccuracyCode', 0.1783468395461912)
5: ('OTA.Attraction.x.RefPoint.x.PositionAccuracyCode', 0.16334683954619122)
6: ('OTA.HotelStatusCode', 0.10874392220421393)
7: ('Recreation.x.Descriptive.EN-US', 0.10687196110210696)
8: ('OTA.ReferencePoint.x.IndexPointCode', 0.09182820097244733)
9: ('PolicyInfo.Description.EN-US', 0.09182820097244733)
10: ('PolicyInfo.MaxChildAge', 0.09182820097244733)
11: ('PolicyInfo.UsualStayFreeChildPerAdult', 0.09182820097244733)

** 16 Envelope.Body.OTA_HotelDescriptiveInfoRS.HotelDescriptiveContents.HotelDescriptiveContent.HotelInfo.Position.Longitude
Value: 1.596451
Keyword: (longitude,0.6239870340356565)(position,0.31199351701782824)(po,0.02836304700162075)
Important: Longitude
0: ('Location.Longitude', 0.8160372771474877)
1: ('ReferencePoint.x.Longitude', 0.5569935170178282)
2: ('Attraction.x.RefPoint.x.Longitude', 0.5219935170178283)
3: ('OTA.Position.PositionAccuracyCode', 0.19934683954619123)
4: ('OTA.ReferencePoint.x.PositionAccuracyCode', 0.17834683954619124)
5: ('OTA.Attraction.x.RefPoint.x.PositionAccuracyCode', 0.16334683954619125)
6: ('OTA.HotelStatusCode', 0.10874392220421393)
7: ('Recreation.x.Descriptive.EN-US', 0.10687196110210696)
8: ('OTA.ReferencePoint.x.IndexPointCode', 0.09182820097244733)
9: ('PolicyInfo.Description.EN-US', 0.09182820097244733)
10: ('PolicyInfo.MaxChildAge', 0.09182820097244733)
11: ('PolicyInfo.UsualStayFreeChildPerAdult', 0.09182820097244733)

** 17 Envelope.Body.OTA_HotelDescriptiveInfoRS.HotelDescriptiveContents.HotelDescriptiveContent.HotelInfo.Services.Service.CodeDetail
Value: Smoke-free property
Keyword: (service,0.6284530386740332)(codedetail,0.25138121546961334)(code,0.048342541436464104)
Important: CodeDetail
0: ('Service.x.CodeDetail.EN-US', 0.4049171270718232)
1: ('Restaurant.x.Service.x.CodeDetail.EN-US', 0.35241712707182327)
2: ('Service.x.Feature.x.CodeDetail.EN-US', 0.35241712707182327)
3: ('OTA.Restaurant.x.Service.x.Code', 0.3033977900552486)
4: ('OTA.Service.x.BusinessServiceCode', 0.3033977900552486)
5: ('OTA.Service.x.MealPlanCode', 0.3033977900552486)
6: ('OTA.Service.x.ProximityCode', 0.3033977900552486)
7: ('OTA.Service.x.HotelAmenityCode', 0.28966850828729285)
8: ('Recreation.x.Name.EN-US', 0.2828572154045105)
9: ('OTA.Service.x.Feature.x.AccessibleCode', 0.27189779005524867)
10: ('OTA.Service.x.Feature.x.SecurityCode', 0.27189779005524867)
11: ('OTA.Service.x.MeetingRoomCode', 0.27189779005524867)

** 18 Envelope.Body.OTA_HotelDescriptiveInfoRS.HotelDescriptiveContents.HotelDescriptiveContent.HotelInfo.Services.Service.Code
Value: 312
Keyword: (service,0.8394833948339485)(code,0.06457564575645758)(ota,0.02398523985239853)
Important: Code
0: ('OTA.Restaurant.x.Service.x.Code', 0.6323892988929889)
1: ('OTA.Restaurant.x.Cuisine.x.Code', 0.4035977859778598)
2: ('Language.x.Code', 0.3985608856088561)
3: ('TimeZone.Code', 0.3635608856088561)
4: ('OTA.Service.x.BusinessServiceCode', 0.3523892988929889)
5: ('OTA.Service.x.MealPlanCode', 0.3523892988929889)
6: ('OTA.Service.x.ProximityCode', 0.3523892988929889)
7: ('OTA.Service.x.HotelAmenityCode', 0.33992619926199263)
8: ('Service.x.CodeDetail.EN-US', 0.32985239852398524)
9: ('OTA.Service.x.Feature.x.AccessibleCode', 0.32088929889298895)
10: ('OTA.Service.x.Feature.x.SecurityCode', 0.32088929889298895)
11: ('OTA.Service.x.MeetingRoomCode', 0.32088929889298895)

** 19 Envelope.Body.OTA_HotelDescriptiveInfoRS.HotelDescriptiveContents.HotelDescriptiveContent.HotelInfo.CategoryCodes.SegmentCategory.Code
Value: 16
Keyword: (segmentcategory,0.6770833333333336)(categorycode,0.19345238095238101)(code,0.052083333333333356)
Important: Code
0: ('OTA.Restaurant.x.Cuisine.x.Code', 0.4)
1: ('OTA.Restaurant.x.Service.x.Code', 0.4)
2: ('Language.x.Code', 0.3959375)
3: ('TimeZone.Code', 0.36093749999999997)
4: ('OTA.SegmentCategory.x.SegmentCode', 0.3146875)
5: ('SegmentCategory.x.CodeDetail.EN-US', 0.293125)
6: ('GDS_Info.x.ChainCode', 0.20015492856502531)
7: ('OTA.HotelCategory.x.HotelCategoryCode', 0.19968750000000002)
8: ('OTA.Restaurant.x.Image.x.CategoryCode', 0.1816251814947382)
9: ('OTA.Attraction.x.AttractionCategoryCode', 0.181625)
10: ('OTA.GuestRoom.x.Image.x.CategoryCode', 0.181625)
11: ('OTA.Image.x.PictureCategoryCode', 0.181625)

** 20 Envelope.Body.OTA_HotelDescriptiveInfoRS.HotelDescriptiveContents.HotelDescriptiveContent.HotelInfo.CategoryCodes.SegmentCategory.CodeDetail
Value: Best Western
Keyword: (segmentcategory,0.5327868852459017)(codedetail,0.21311475409836067)(categorycode,0.1522248243559719)
Important: CodeDetail
0: ('SegmentCategory.x.CodeDetail.EN-US', 0.37524590163934424)
1: ('OtherHotel.x.HotelName.EN-US', 0.3556967213114754)
2: ('OTA.SegmentCategory.x.SegmentCode', 0.2811885245901639)
3: ('HotelCategory.x.CodeDetail.EN-US', 0.2140573770491803)
4: ('Attraction.x.CodeDetail.EN-US', 0.19336065573770492)
5: ('MeetingRoom.x.Code.x.CodeDetail.EN-US', 0.19336065573770492)
6: ('Recreation.x.CodeDetail.EN-US', 0.19336065573770492)
7: ('Service.x.CodeDetail.EN-US', 0.19336065573770492)
8: ('OTA.HotelCategory.x.HotelCategoryCode', 0.1869672131147541)
9: ('GuestRoomInfo.x.CodeDetail.EN-US', 0.18255737704918035)
10: ('Restaurant.x.InfoCode.x.CodeDetail.EN-US', 0.18255737704918035)
11: ('OTA.HotelStatusCode', 0.1725)

** 21 Envelope.Body.OTA_HotelDescriptiveInfoRS.HotelDescriptiveContents.HotelDescriptiveContent.HotelInfo.CategoryCodes.GuestRoomInfo.Code
Value: 5
Keyword: (guestroominfo,0.48811013767209005)(categorycode,0.20919005900232432)(guestroom,0.16270337922403003)
Important: Code
0: ('OTA.Restaurant.x.Cuisine.x.Code', 0.40122027534418025)
1: ('OTA.Restaurant.x.Service.x.Code', 0.40122027534418025)
2: ('Language.x.Code', 0.3968272841051314)
3: ('TimeZone.Code', 0.3618272841051314)
4: ('GuestRoomInfo.x.CodeDetail.EN-US', 0.3208911138923654)
5: ('OTA.GuestRoomInfo.x.GuestRoomInfoCode', 0.30728410513141424)
6: ('GuestRoomInfo.x.Quantity', 0.29856382978723395)
7: ('OTA.GuestRoom.x.Image.x.CategoryCode', 0.2623178973717146)
8: ('OTA.HotelCategory.x.HotelCategoryCode', 0.20454317897371713)
9: ('OTA.Restaurant.x.Image.x.CategoryCode', 0.1861518722723787)
10: ('OTA.Attraction.x.AttractionCategoryCode', 0.18615018773466832)
11: ('OTA.Image.x.PictureCategoryCode', 0.18615018773466832)

** 22 Envelope.Body.OTA_HotelDescriptiveInfoRS.HotelDescriptiveContents.HotelDescriptiveContent.HotelInfo.CategoryCodes.GuestRoomInfo.CodeDetail
Value: Floors
Keyword: (guestroominfo,0.377541142303969)(codedetail,0.22652468538238144)(categorycode,0.16180334670170102)
Important: CodeDetail
0: ('GuestRoomInfo.x.CodeDetail.EN-US', 0.3758276863504356)
1: ('OTA.GuestRoomInfo.x.GuestRoomInfoCode', 0.27165537270087126)
2: ('GuestRoomInfo.x.Quantity', 0.266609390125847)
3: ('GuestRoom.x.Amenity.x.CodeDetail.EN-US', 0.26325124814774614)
4: ('Restaurant.x.Image.x.URL', 0.26154323816299435)
5: ('OTA.GuestRoom.x.Image.x.CategoryCode', 0.24095256534365922)
6: ('GuestRoom.x.Feature.x.CodeDetail.EN-US', 0.2406461761858664)
7: ('HotelCategory.x.CodeDetail.EN-US', 0.21761616650532425)
8: ('Attraction.x.CodeDetail.EN-US', 0.19671829622458858)
9: ('MeetingRoom.x.Code.x.CodeDetail.EN-US', 0.19671829622458858)
10: ('Recreation.x.CodeDetail.EN-US', 0.19671829622458858)
11: ('SegmentCategory.x.CodeDetail.EN-US', 0.19671829622458858)

** 23 Envelope.Body.OTA_HotelDescriptiveInfoRS.HotelDescriptiveContents.HotelDescriptiveContent.HotelInfo.CategoryCodes.GuestRoomInfo.Quantity
Value: 5
Keyword: (quantity,0.5942102590147282)(guestroominfo,0.19807008633824275)(categorycode,0.08488717985924689)
Important: Quantity
0: ('GuestRoomInfo.x.Quantity', 0.672026409344845)
1: ('GuestRoom.x.Amenity.x.Quantity', 0.5586490604367699)
2: ('Restaurant.Quantity', 0.5097841543930929)
3: ('Service.x.Quantity', 0.5097841543930929)
4: ('Service.x.Feature.x.Quantity', 0.47478415439309285)
5: ('EnviroImpact.Energy.Usage.x.Quantity', 0.45728415439309283)
6: ('MeetingRoom.x.Code.x.CodeQuantity', 0.23458372029328425)
7: ('GuestRoomInfo.x.CodeDetail.EN-US', 0.2300416455053326)
8: ('OTA.GuestRoomInfo.x.GuestRoomInfoCode', 0.2138242762823768)
9: ('OTA.GuestRoom.x.Image.x.CategoryCode', 0.2062732351447435)
10: ('AltDescription.x.RecordID', 0.1685718297958374)
11: ('PetsPolicy.x.MaxPetQuantity', 0.1667841543930929)

** 24 Envelope.Body.OTA_HotelDescriptiveInfoRS.HotelDescriptiveContents.HotelDescriptiveContent.FacilityInfo.GuestRooms.GuestRoom.MaxOccupancy
Value: 2
Keyword: (maxoccupancy,0.8559782608695652)(guestroom,0.0951086956521739)(info,0.012228260869565216)
Important: MaxOccupancy
0: ('GuestRoom.x.MaxOccupancy', 0.6897282608695652)
1: ('PetsPolicy.x.RefundableDeposit', 0.21867402791976928)
2: ('GuestRoomInfo.x.Quantity', 0.1275407608695652)
3: ('OTA.GuestRoom.x.Image.x.UnitOfMeasure', 0.1275407608695652)
4: ('GuestRoom.x.Description.EN-US', 0.1249728260869565)
5: ('GuestRoom.x.ID', 0.1249728260869565)
6: ('GuestRoom.x.MaxAdultOccupancy', 0.1249728260869565)
7: ('GuestRoom.x.MaxChildOccupancy', 0.1249728260869565)
8: ('GuestRoom.x.MinOccupancy', 0.1249728260869565)
9: ('OTA.GuestRoomInfo.x.GuestRoomInfoCode', 0.11510869565217388)
10: ('OTA.HotelStatusCode', 0.11013586956521738)
11: ('Recreation.x.Descriptive.EN-US', 0.10756793478260868)

** 25 Envelope.Body.OTA_HotelDescriptiveInfoRS.HotelDescriptiveContents.HotelDescriptiveContent.FacilityInfo.GuestRooms.GuestRoom.ID
Value: 2281166
Keyword: (id,0.6645569620253164)(guestroom,0.22151898734177214)(info,0.028481012658227847)
Important: ID
0: ('GuestRoom.x.ID', 0.6760759493670886)
1: ('GuestRoom.x.Amenity.x.ID', 0.6060759493670885)
2: ('GuestRoom.x.Feature.x.ID', 0.6060759493670885)
3: ('Attraction.x.ID', 0.5245569620253164)
4: ('MeetingRoom.x.ID', 0.5245569620253164)
5: ('Recreation.x.ID', 0.5245569620253164)
6: ('Restaurant.x.ID', 0.5245569620253164)
7: ('Service.x.ID', 0.5245569620253164)
8: ('Hotel.Context.XXX.ID', 0.5095379746835443)
9: ('AltDescription.x.ID', 0.4895569620253164)
10: ('ReferencePoint.x.ID', 0.4895569620253164)
11: ('Location.Longitude', 0.3)

** 26 Envelope.Body.OTA_HotelDescriptiveInfoRS.HotelDescriptiveContents.HotelDescriptiveContent.FacilityInfo.GuestRooms.GuestRoom.RoomTypeName
Value: 1 Double Bed, Non-Smoking, Standard Room, Cozy Roo...
Keyword: (roomtypename,0.6766917293233083)(type,0.11278195488721805)(name,0.0966702470461869)
Important: RoomTypeName
0: ('GuestRoom.x.RoomTypeName.EN-US', 0.4118796992490733)
1: ('ContactInfo.x.Address.x.AddressLine.x.Text.EN-US', 0.3086792219832427)
2: ('GuestRoom.x.Type.x.Name.EN-US', 0.26977443609022556)
3: ('Name.EN-US', 0.2303007518796992)
4: ('GuestRoom.x.Type.x.MaxCribs', 0.17947368421052629)
5: ('GuestRoom.x.Type.x.MaxRollaways', 0.17947368421052629)
6: ('GuestRoom.x.Type.x.NonSmoking', 0.17947368421052629)
7: ('GuestRoom.x.Type.x.NumberOfBeds', 0.17947368421052629)
8: ('GuestRoom.x.Type.x.Size', 0.17947368421052629)
9: ('OTA.GuestRoom.x.Type.x.RoomViewCode', 0.1675037593984962)
10: ('OTA.GuestRoom.x.Type.x.SegmentCode', 0.1675037593984962)
11: ('GDS_Info.x.GDS_Name', 0.16233082706766916)

** 27 Envelope.Body.OTA_HotelDescriptiveInfoRS.HotelDescriptiveContents.HotelDescriptiveContent.FacilityInfo.GuestRooms.GuestRoom.TypeRoom.RoomTypeCode
Value: REY
Keyword: (roomtypecode,0.421339643996296)(typecode,0.421339643996296)(type,0.07022327399938266)
Important: RoomTypeCode
0: ('GuestRoom.x.Type.x.RoomTypeCode', 0.6949439242720444)
1: ('GuaranteePayment.x.RoomTypeCode', 0.6151126659121308)
2: ('CancelPolicy.x.RoomTypeCode', 0.5951126660196446)
3: ('PolicyInfo.UsualStayFreeChildPerAdult', 0.34080906454623144)
4: ('OTA.GuestRoom.x.Type.x.BedTypeCode', 0.2927266179648112)
5: ('OTA.OtherHotel.x.SegmentTypeCode', 0.25915937853688653)
6: ('OTA.Restaurant.x.InfoCode.x.TypeCode', 0.25915937853688653)
7: ('OTA.Promotion.x.PackageTypeCode', 0.24820858926586684)
8: ('OTA.ContactInfo.x.Address.x.AddressUseTypeCode', 0.24040937853688651)
9: ('OTA.ContactInfo.x.Email.x.EmailTypeCode', 0.24040937853688651)
10: ('OTA.ContactInfo.x.Phone.x.PhoneTechTypeCode', 0.24040937853688651)
11: ('OTA.ContactInfo.x.Phone.x.PhoneLocationTypeCode', 0.22582604520355315)

** 28 Envelope.Body.OTA_HotelDescriptiveInfoRS.HotelDescriptiveContents.HotelDescriptiveContent.FacilityInfo.GuestRooms.GuestRoom.Amenities.Amenity.RoomAmenityCode
Value: 74
Keyword: (roomamenitycode,0.5859207325797683)(amenity,0.29296036628988414)(guestroom,0.06510230361997425)
Important: RoomAmenityCode
0: ('OTA.GuestRoom.x.Amenity.x.RoomAmenityCode', 0.694726713406782)
1: ('GuestRoom.x.Amenity.x.CodeDetail.EN-US', 0.23742559736729144)
2: ('GuestRoom.x.Amenity.x.ID', 0.21519316068107022)
3: ('GuestRoom.x.Amenity.x.Quantity', 0.21519316068107022)
4: ('OTA.Service.x.HotelAmenityCode', 0.20976963800257545)
5: ('Hotel.Context.XXX.ID', 0.20559070277619998)
6: ('GuestRoom.x.Amenity.x.DescriptiveText.EN-US', 0.20295092287880953)
7: ('GuestRoom.x.Amenity.x.IncludedInRate', 0.18019316068107025)
8: ('GuestRoom.x.Amenity.x.Tag.x.Text.EN-US', 0.18019316068107025)
9: ('OTA.HotelStatusCode', 0.16574796108169979)
10: ('OTA.GuestRoom.x.Feature.x.SecurityCode', 0.14616216737050908)
11: ('GuestRoomInfo.x.CodeDetail.EN-US', 0.14616168264415508)

** 29 Envelope.Body.OTA_HotelDescriptiveInfoRS.HotelDescriptiveContents.HotelDescriptiveContent.FacilityInfo.GuestRooms.GuestRoom.Amenities.Amenity.CodeDetail
Value: Non-smoking
Keyword: (amenity,0.5514408833827094)(codedetail,0.22057635335308376)(guestroom,0.12254241852949097)
Important: CodeDetail
0: ('GuestRoom.x.Amenity.x.CodeDetail.EN-US', 0.40676541879881495)
1: ('OTA.GuestRoom.x.Amenity.x.RoomAmenityCode', 0.3217530298949636)
2: ('ReferencePoint.x.RefPointName.EN-US', 0.2997257709503174)
3: ('GuestRoom.x.Amenity.x.ID', 0.28153649340156206)
4: ('GuestRoom.x.Amenity.x.Quantity', 0.28153649340156206)
5: ('OTA.Service.x.HotelAmenityCode', 0.27132776730406677)
6: ('GuestRoom.x.Amenity.x.DescriptiveText.EN-US', 0.27084513870185833)
7: ('GuestRoomInfo.x.CodeDetail.EN-US', 0.2522714785887422)
8: ('GuestRoom.x.Amenity.x.IncludedInRate', 0.24653649340156206)
9: ('GuestRoom.x.Amenity.x.Tag.x.Text.EN-US', 0.24653649340156206)
10: ('GuestRoom.x.Feature.x.CodeDetail.EN-US', 0.23846283328844595)
11: ('HotelCategory.x.CodeDetail.EN-US', 0.21603757069754911)

** 30 Envelope.Body.OTA_HotelDescriptiveInfoRS.HotelDescriptiveContents.HotelDescriptiveContent.FacilityInfo.MeetingRooms.TotalRoomSeatingCapacity
Value: 200
Keyword: (capacity,0.8171206225680935)(meetingroom,0.13618677042801558)(ota,0.011673151750972763)
Important: TotalRoomSeatingCapacity
0: ('MeetingRoom.TotalCapacity', 0.3601459143968871)
1: ('MeetingRoom.LargestCapacity', 0.3401945525291829)
2: ('MeetingRoom.x.Format.x.Capacity', 0.3401945525291829)
3: ('Location.Longitude', 0.3)
4: ('Restaurant.x.Capacity', 0.2765953307392996)
5: ('MeetingRoom.TotalSpace', 0.17105058365758755)
6: ('OTA.MeetingRoom.x.Code.x.MeetingRoomCode', 0.13605058365758754)
7: ('MeetingRoom.Count', 0.13359922178988326)
8: ('MeetingRoom.LargestSpace', 0.13359922178988326)
9: ('MeetingRoom.x.Area', 0.13359922178988326)
10: ('MeetingRoom.x.Height', 0.13359922178988326)
11: ('MeetingRoom.x.ID', 0.13359922178988326)

** 31 Envelope.Body.OTA_HotelDescriptiveInfoRS.HotelDescriptiveContents.HotelDescriptiveContent.FacilityInfo.MeetingRooms.MeetingRoom.MultimediaDescriptions.MultimediaDescription.ImageItems.ImageItem.Category
Value: 8
Keyword: (image,0.315)(meetingroom,0.26249999999999996)(description,0.17499999999999996)
Important: Category
0: ('EnviroImpact.Recycling.EcoDishware', 0.2806526362895965)
1: ('MeetingRoom.x.Image.x.Sort', 0.2612750000002135)
2: ('MeetingRoom.x.Image.x.Caption.EN-US', 0.261275)
3: ('MeetingRoom.x.Image.x.Height', 0.261275)
4: ('MeetingRoom.x.Image.x.URL', 0.261275)
5: ('Description.EN-US', 0.24674999999999997)
6: ('OTA.MeetingRoom.x.Image.x.PictureCategoryCode', 0.23099999999999996)
7: ('OTA.MeetingRoom.x.Image.x.UnitOfMeasureCode', 0.23099999999999996)
8: ('MeetingRoom.x.Image.x.ApplicableEnd', 0.22627499999999992)
9: ('MeetingRoom.x.Image.x.ApplicableStart', 0.22627499999999992)
10: ('MeetingRoom.x.Image.x.FileSize', 0.22627499999999992)
11: ('MeetingRoom.x.Image.x.Width', 0.22627499999999992)

** 32 Envelope.Body.OTA_HotelDescriptiveInfoRS.HotelDescriptiveContents.HotelDescriptiveContent.FacilityInfo.MeetingRooms.MeetingRoom.MultimediaDescriptions.MultimediaDescription.ImageItems.ImageItem.ImageFormat.Width
Value: 390
Keyword: (width,0.4344827586206896)(id,0.14482758620689654)(format,0.14482758620689654)
Important: Width
0: ('MeetingRoom.x.Image.x.Width', 0.6451103448275861)
1: ('Image.x.Width', 0.629903448275862)
2: ('MeetingRoom.x.Width', 0.6268620689655172)
3: ('GuestRoom.x.Image.x.Width', 0.577403448275862)
4: ('Restaurant.x.Image.x.Width', 0.577403448275862)
5: ('ContactInfo.x.Phone.x.PhoneNumber', 0.3537980838578323)
6: ('MeetingRoom.x.ID', 0.2556206896551724)
7: ('Description.EN-US', 0.22013793103448273)
8: ('Image.x.RecordID', 0.1886620689655173)
9: ('Image.x.SourceID', 0.1886620689655172)
10: ('MeetingRoom.x.Format.x.Capacity', 0.18562068965517237)
11: ('AltDescription.x.ID', 0.18055172413793102)

** 33 Envelope.Body.OTA_HotelDescriptiveInfoRS.HotelDescriptiveContents.HotelDescriptiveContent.FacilityInfo.MeetingRooms.MeetingRoom.MultimediaDescriptions.MultimediaDescription.ImageItems.ImageItem.ImageFormat.Height
Value: 260
Keyword: (height,0.5080645161290323)(format,0.1693548387096774)(image,0.10161290322580645)
Important: Height
0: ('MeetingRoom.x.Image.x.Height', 0.6358145161290322)
1: ('Image.x.Height', 0.618032258064516)
2: ('MeetingRoom.x.Height', 0.6144758064516129)
3: ('GuestRoom.x.Image.x.Height', 0.548032258064516)
4: ('Restaurant.x.Image.x.Height', 0.548032258064516)
5: ('Location.Longitude', 0.2999997138977051)
6: ('Description.EN-US', 0.22185483870967737)
7: ('MeetingRoom.x.Format.x.Capacity', 0.19334677419354837)
8: ('OTA.Image.x.FormatCode', 0.18442741935483867)
9: ('OTA.MeetingRoom.x.Format.x.FormatCode', 0.18087096774193545)
10: ('MeetingRoom.x.Image.x.Caption.EN-US', 0.17912096774193545)
11: ('MeetingRoom.x.Image.x.Sort', 0.17912096774193545)

** 34 Envelope.Body.OTA_HotelDescriptiveInfoRS.HotelDescriptiveContents.HotelDescriptiveContent.FacilityInfo.MeetingRooms.MeetingRoom.MultimediaDescriptions.MultimediaDescription.ImageItems.ImageItem.ImageFormat.URL
Value: https://media.iceportal.com/67035/photos/0615009_M...
Keyword: (url,0.5080645161290323)(format,0.1693548387096774)(image,0.10161290322580645)
Important: URL
0: ('MeetingRoom.x.Image.x.URL', 0.7975912376065407)
1: ('Image.x.URL', 0.670363975376852)
2: ('GuestRoom.x.Image.x.URL', 0.6339236181089954)
3: ('Restaurant.x.Image.x.URL', 0.548032258064516)
4: ('ContactInfo.x.URL.x.URL', 0.528217741936848)
5: ('Attraction.x.URL', 0.4916936250700682)
6: ('Description.EN-US', 0.22185483874109932)
7: ('MeetingRoom.x.Format.x.Capacity', 0.19334677419354837)
8: ('OTA.Image.x.FormatCode', 0.18442741935483867)
9: ('OTA.MeetingRoom.x.Format.x.FormatCode', 0.18087096774193545)
10: ('MeetingRoom.x.Image.x.Caption.EN-US', 0.17912096774193545)
11: ('MeetingRoom.x.Image.x.Height', 0.17912096774193545)

** 35 Envelope.Body.OTA_HotelDescriptiveInfoRS.HotelDescriptiveContents.HotelDescriptiveContent.FacilityInfo.MeetingRooms.MeetingRoom.MultimediaDescriptions.MultimediaDescription.ImageItems.ImageItem.Description.Caption
Value: Meeting Room
Keyword: (caption,0.6116504854368933)(image,0.12233009708737864)(meetingroom,0.10194174757281553)
Important: Caption
0: ('MeetingRoom.x.Image.x.Caption.EN-US', 0.6655436893203883)
1: ('Image.x.Caption.EN-US', 0.644135922330097)
2: ('GuestRoom.x.Image.x.Caption.En-US', 0.574135922330097)
3: ('Restaurant.x.Image.x.Caption.EN-US', 0.574135922330097)
4: ('CancelPolicy.x.Sat', 0.29999753236770627)
5: ('Description.EN-US', 0.22427184466019415)
6: ('MeetingRoom.x.Image.x.Height', 0.18709708737864078)
7: ('MeetingRoom.x.Image.x.Sort', 0.18709708737864078)
8: ('MeetingRoom.x.Image.x.URL', 0.18709708737864078)
9: ('MeetingRoom.TotalSpace', 0.16324271844660193)
10: ('OTA.MeetingRoom.x.Image.x.PictureCategoryCode', 0.15393203883495143)
11: ('OTA.MeetingRoom.x.Image.x.UnitOfMeasureCode', 0.15393203883495143)

** 36 Envelope.Body.OTA_HotelDescriptiveInfoRS.HotelDescriptiveContents.HotelDescriptiveContent.Policies.Policy.PolicyInfo.CheckInTime
Value: 15:00:00
Keyword: (checkintime,0.5956678700361011)(policyinfo,0.19855595667870035)(time,0.059566787003610115)
Important: CheckInTime
0: ('PolicyInfo.CheckInTime', 0.6857046248880723)
1: ('GuaranteePayment.x.HoldTime', 0.3487460588763337)
2: ('PolicyInfo.CheckOutTime', 0.24561371841155236)
3: ('PolicyInfo.Description.EN-US', 0.2261046931407942)
4: ('PolicyInfo.MaxChildAge', 0.2261046931407942)
5: ('PolicyInfo.UsualStayFreeChildPerAdult', 0.2261046931407942)
6: ('PolicyInfo.UsualStayFreeCutOffAge', 0.2261046931407942)
7: ('PolicyInfo.AcceptedGuestType', 0.19810469314079418)
8: ('PolicyInfo.KidsStayFree', 0.19810469314079418)
9: ('PolicyInfo.MinGuestAge', 0.19810469314079418)
10: ('PolicyInfo.RoomGuaranteedLateArrival', 0.19810469314079418)
11: ('Policy.x.Description.EN-US', 0.15462093862815882)

** 37 Envelope.Body.OTA_HotelDescriptiveInfoRS.HotelDescriptiveContents.HotelDescriptiveContent.Policies.Policy.PolicyInfo.CheckOutTime
Value: 12:00:00
Keyword: (checkouttime,0.5956678700361011)(policyinfo,0.19855595667870035)(time,0.059566787003610115)
Important: CheckOutTime
0: ('PolicyInfo.CheckOutTime', 0.6857039711191335)
1: ('Restaurant.x.DescriptiveText.EN-US', 0.3385753563379983)
2: ('PolicyInfo.CheckInTime', 0.24561371841155236)
3: ('PolicyInfo.Description.EN-US', 0.2261046931407942)
4: ('PolicyInfo.MaxChildAge', 0.2261046931407942)
5: ('PolicyInfo.UsualStayFreeChildPerAdult', 0.2261046931407942)
6: ('PolicyInfo.UsualStayFreeCutOffAge', 0.2261046931407942)
7: ('PolicyInfo.AcceptedGuestType', 0.19810469314079418)
8: ('PolicyInfo.KidsStayFree', 0.19810469314079418)
9: ('PolicyInfo.MinGuestAge', 0.19810469314079418)
10: ('PolicyInfo.RoomGuaranteedLateArrival', 0.19810469314079418)
11: ('Policy.x.Description.EN-US', 0.15462093862815882)

** 38 Envelope.Body.OTA_HotelDescriptiveInfoRS.HotelDescriptiveContents.HotelDescriptiveContent.Policies.Policy.PolicyInfo.UsualStayFreeCutOffAge
Value: 12
Keyword: (usualstayfreecutoffage,0.6333973128598849)(policyinfo,0.21113243761996162)(policy,0.04524266520427749)
Important: UsualStayFreeCutOffAge
0: ('PolicyInfo.UsualStayFreeCutOffAge', 0.6847984644913628)
1: ('Recreation.x.ID', 0.2359255850315094)
2: ('PolicyInfo.Description.EN-US', 0.2297850287907869)
3: ('PolicyInfo.MaxChildAge', 0.2297850287907869)
4: ('PolicyInfo.UsualStayFreeChildPerAdult', 0.2297850287907869)
5: ('PolicyInfo.AcceptedGuestType', 0.20178502879079108)
6: ('PolicyInfo.CheckInTime', 0.20178502879078694)
7: ('PolicyInfo.CheckOutTime', 0.20178502879078694)
8: ('PolicyInfo.KidsStayFree', 0.20178502879078694)
9: ('PolicyInfo.MinGuestAge', 0.20178502879078694)
10: ('PolicyInfo.RoomGuaranteedLateArrival', 0.20178502879078694)
11: ('Policy.x.Description.EN-US', 0.15554702495201533)

** 39 Envelope.Body.OTA_HotelDescriptiveInfoRS.HotelDescriptiveContents.HotelDescriptiveContent.Policies.Policy.CancelPolicy
Value: 
Keyword: (cancelpolicy,0.8029197080291971)(policy,0.05735140771637122)(policies,0.05735140771637122)
Important: CancelPolicy
0: ('CancelPolicy.x.OffsetUnitMultiplier', 0.34849521264501837)
1: ('CancelPolicy.x.Amount', 0.3467395427690166)
2: ('CancelPolicy.x.Deadline', 0.3461821700266841)
3: ('CancelPolicy.x.Sat', 0.34614027734448194)
4: ('CancelPolicy.x.Fri', 0.3460809945007599)
5: ('CancelPolicy.x.Thur', 0.34607677606351667)
6: ('CancelPolicy.x.Weds', 0.34607658574192773)
7: ('CancelPolicy.x.Tue', 0.3460642767075728)
8: ('CancelPolicy.x.Mon', 0.3460633474862947)
9: ('CancelPolicy.x.End', 0.3460623109941184)
10: ('CancelPolicy.x.Percent', 0.34597391498925156)
11: ('CancelPolicy.x.Start', 0.34591192921749775)

** 40 Envelope.Body.OTA_HotelDescriptiveInfoRS.HotelDescriptiveContents.HotelDescriptiveContent.Policies.Policy.GuaranteePaymentPolicy.GuaranteePayment.AcceptedPayments.AcceptedPayment.PaymentCard.CardType.Code
Value: AX
Keyword: (guaranteepayment,0.28980612038100384)(acceptedpayment,0.28980612038100384)(guarantee,0.28980612038100384)
Important: Code
0: ('PolicyInfo.AcceptedGuestType', 0.4561897688414336)
1: ('GuaranteePayment.x.AcceptedPayment.x.Guarantee', 0.3925778558400324)
2: ('OTA.Restaurant.x.Cuisine.x.Code', 0.38821016010268183)
3: ('OTA.Restaurant.x.Service.x.Code', 0.38821016010268183)
4: ('Language.x.Code', 0.3873407417415388)
5: ('OTA.GuaranteePayment.x.AcceptedPayment.x.PaymentTypeCode', 0.3534312301560493)
6: ('TimeZone.Code', 0.3523407417415389)
7: ('GuaranteePayment.x.AcceptedPayment.x.CardTypeCode', 0.3450618117949064)
8: ('GuaranteePayment.x.Type', 0.3418617847733567)
9: ('GuaranteePayment.x.AcceptedPayment.x.CardTypeDescription.EN-US', 0.33273139775096805)
10: ('GuaranteePayment.x.PolicyCode', 0.3061727352563669)
11: ('GuaranteePayment.x.GuaranteeType', 0.28936178477335667)

** 41 Envelope.Body.OTA_HotelDescriptiveInfoRS.HotelDescriptiveContents.HotelDescriptiveContent.Policies.Policy.TaxPolicies.TaxPolicy.Type
Value: Inclusive
Keyword: (type,0.310296191819464)(taxpolicy,0.23272214386459802)(policy,0.13298408220834174)
Important: Type
0: ('TaxPolicy.x.Type', 0.6497320169252468)
1: ('FeePolicy.x.Type', 0.5483603667136813)
2: ('RatePolicy.x.Type', 0.5483603667136813)
3: ('CheckoutCharge.Type', 0.4151622002820874)
4: ('GuaranteePayment.x.Type', 0.4151622002820874)
5: ('ReferencePoint.x.RefPointName.EN-US', 0.3597258400890151)
6: ('OTA.TaxPolicy.x.FeeTaxTypeCode', 0.29656734837799714)
7: ('PolicyInfo.AcceptedGuestType', 0.2564456981664316)
8: ('TaxPolicy.x.Amount', 0.25206981664315936)
9: ('TaxPolicy.x.Description.EN-US', 0.25206981664315936)
10: ('TaxPolicy.x.Percent', 0.25206981664315936)
11: ('TaxPolicy.x.Sequence', 0.25206981664315936)

** 42 Envelope.Body.OTA_HotelDescriptiveInfoRS.HotelDescriptiveContents.HotelDescriptiveContent.Policies.Policy.TaxPolicies.TaxPolicy.Code
Value: 19
Keyword: (taxpolicy,0.3056861906797777)(policy,0.17467782324558723)(policies,0.17467782324558723)
Important: Code
0: ('OTA.Restaurant.x.Cuisine.x.Code', 0.41208849935870034)
1: ('OTA.Restaurant.x.Service.x.Code', 0.41208849935870034)
2: ('Language.x.Code', 0.40475203078238564)
3: ('Restaurant.x.Service.x.CodeDetail.EN-US', 0.3722504572197635)
4: ('TimeZone.Code', 0.3697520307823856)
5: ('TaxPolicy.x.CurrencyCode', 0.31197178281316795)
6: ('OTA.TaxPolicy.x.ChargeFrequencyCode', 0.28255825138948265)
7: ('OTA.TaxPolicy.x.ChargeUnitCode', 0.28255825138948265)
8: ('OTA.TaxPolicy.x.FeeTaxTypeCode', 0.28255825138948265)
9: ('TaxPolicy.x.Amount', 0.2817197520307823)
10: ('TaxPolicy.x.Description.EN-US', 0.2817197520307823)
11: ('TaxPolicy.x.Percent', 0.2817197520307823)

** 43 Envelope.Body.OTA_HotelDescriptiveInfoRS.HotelDescriptiveContents.HotelDescriptiveContent.Policies.Policy.TaxPolicies.TaxPolicy.CurrecyCode
Value: EUR
Keyword: (taxpolicy,0.3056861906797777)(policy,0.17467782324558723)(policies,0.17467782324558723)
Important: CurrecyCode
0: ('OTA.Restaurant.x.Cuisine.x.Code', 0.41208849935870034)
1: ('OTA.Restaurant.x.Service.x.Code', 0.41208849935870034)
2: ('Language.x.Code', 0.40475203078238564)
3: ('TimeZone.Code', 0.3697520307823856)
4: ('TaxPolicy.x.CurrencyCode', 0.31197178281316795)
5: ('OTA.TaxPolicy.x.ChargeFrequencyCode', 0.28255825138948265)
6: ('OTA.TaxPolicy.x.ChargeUnitCode', 0.28255825138948265)
7: ('OTA.TaxPolicy.x.FeeTaxTypeCode', 0.28255825138948265)
8: ('TaxPolicy.x.Amount', 0.2817197520307823)
9: ('TaxPolicy.x.Description.EN-US', 0.2817197520307823)
10: ('TaxPolicy.x.Percent', 0.2817197520307823)
11: ('TaxPolicy.x.Sequence', 0.2817197520307823)

** 44 Envelope.Body.OTA_HotelDescriptiveInfoRS.HotelDescriptiveContents.HotelDescriptiveContent.Policies.Policy.TaxPolicies.TaxPolicy.Percent
Value: 10
Keyword: (percent,0.7296849087893864)(taxpolicy,0.0912106135986733)(policy,0.05212035062781332)
Important: Percent
0: ('TaxPolicy.x.Percent', 0.6802985074626866)
1: ('CancelPolicy.x.Percent', 0.6086467752615986)
2: ('CommissionPolicy.Percent', 0.6086442786069651)
3: ('FeePolicy.x.Percent', 0.6086442786069651)
4: ('CheckoutCharge.Percent', 0.5032655894752552)
5: ('GuaranteePayment.x.Percent', 0.5032338308457711)
6: ('Service.x.OperationSchedule.x.Charge.x.Percent', 0.4752338311734941)
7: ('EnviroImpact.Water.WasteDivPercent', 0.20573399677154028)
8: ('TaxPolicy.x.Amount', 0.1945646766169154)
9: ('TaxPolicy.x.Description.EN-US', 0.1945646766169154)
10: ('TaxPolicy.x.Sequence', 0.1945646766169154)
11: ('TaxPolicy.x.Type', 0.1945646766169154)

** 45 Envelope.Body.OTA_HotelDescriptiveInfoRS.HotelDescriptiveContents.HotelDescriptiveContent.Policies.Policy.TaxPolicies.TaxPolicy.EffectiveDate
Value: 2015-08-06
Keyword: (date,0.42186001917545546)(effectivedate,0.42186001917545546)(taxpolicy,0.05273250239693193)
Important: EffectiveDate
0: ('TaxPolicy.x.EffectiveDate', 0.6886097794822628)
1: ('FeePolicy.x.EffectiveDate', 0.635535953978907)
2: ('ReferencePoint.x.Transportation.x.CodeDetail.EN-US', 0.3460268456375839)
3: ('TaxPolicy.x.ExpireDate', 0.27801917545541704)
4: ('Policies.LastUpdated', 0.25644534995206136)
5: ('FeePolicy.x.ExpireDate', 0.22494534995206134)
6: ('ContactInfo.x.LastUpdated', 0.194856184084372)
7: ('Award.x.Date', 0.1935906040268456)
8: ('LastUpdated', 0.1935906040268456)
9: ('TaxPolicy.x.Amount', 0.17892857142857138)
10: ('TaxPolicy.x.Description.EN-US', 0.17892857142857138)
11: ('TaxPolicy.x.Percent', 0.17892857142857138)

** 46 Envelope.Body.OTA_HotelDescriptiveInfoRS.HotelDescriptiveContents.HotelDescriptiveContent.Policies.Policy.TaxPolicies.TaxPolicy.ChargeUnit
Value: 25
Keyword: (chargeunit,0.5346294046172541)(charge,0.26731470230862703)(taxpolicy,0.06682867557715676)
Important: ChargeUnit
0: ('OTA.TaxPolicy.x.ChargeUnitCode', 0.3546688942891859)
1: ('OTA.Recreation.x.Schedule.x.Charge.x.ChargeFrequencyCode', 0.3255362513143556)
2: ('OTA.FeePolicy.x.ChargeUnitCode', 0.314384872417983)
3: ('OTA.MeetingRoom.x.Code.x.ChargeUnitCode', 0.275201902532232)
4: ('OTA.Recreation.x.Schedule.x.Charge.x.ChargeUnitCode', 0.26001215066828676)
5: ('OTA.Service.x.OperationSchedule.x.Charge.x.ChargeUnit.ChargeTypeCode', 0.23301216137329803)
6: ('OTA.TaxPolicy.x.ChargeFrequencyCode', 0.21614671931956256)
7: ('TaxPolicy.x.Amount', 0.18465674362089915)
8: ('TaxPolicy.x.Description.EN-US', 0.18465674362089915)
9: ('TaxPolicy.x.Percent', 0.18465674362089915)
10: ('TaxPolicy.x.Sequence', 0.18465674362089915)
11: ('TaxPolicy.x.Type', 0.18465674362089915)

** 47 Envelope.Body.OTA_HotelDescriptiveInfoRS.HotelDescriptiveContents.HotelDescriptiveContent.Policies.Policy.TaxPolicies.TaxPolicy.ChargeFrequency
Value: 1
Keyword: (chargefrequency,0.534629404617254)(charge,0.267314702308627)(taxpolicy,0.06682867557715674)
Important: ChargeFrequency
0: ('OTA.TaxPolicy.x.ChargeFrequencyCode', 0.35466889428918585)
1: ('OTA.FeePolicy.x.ChargeFrequencyCode', 0.3143848724179829)
2: ('OTA.MeetingRoom.x.Code.x.ChargeFrequencyCode', 0.275012152271506)
3: ('OTA.Recreation.x.Schedule.x.Charge.x.ChargeFrequencyCode', 0.26021544194266105)
4: ('OTA.Service.x.OperationSchedule.x.Charge.x.ChargeFrequency.ChargeTypeCode', 0.23305233961079877)
5: ('OTA.TaxPolicy.x.ChargeUnitCode', 0.21614671931956256)
6: ('TaxPolicy.x.Amount', 0.1846567436208991)
7: ('TaxPolicy.x.Description.EN-US', 0.1846567436208991)
8: ('TaxPolicy.x.Percent', 0.1846567436208991)
9: ('TaxPolicy.x.Sequence', 0.1846567436208991)
10: ('TaxPolicy.x.Type', 0.1846567436208991)
11: ('OTA.FeePolicy.x.ChargeUnitCode', 0.17586269744835967)

** 48 Envelope.Body.OTA_HotelDescriptiveInfoRS.HotelDescriptiveContents.HotelDescriptiveContent.Policies.Policy.TaxPolicies.TaxPolicy.Amount
Value: 2.2
Keyword: (amount,0.7296849087893865)(taxpolicy,0.09121061359867332)(policy,0.052120350627813325)
Important: Amount
0: ('TaxPolicy.x.Amount', 0.6802985074626866)
1: ('CancelPolicy.x.Amount', 0.6086442786069651)
2: ('CommissionPolicy.Amount', 0.6086442786069651)
3: ('FeePolicy.x.Amount', 0.6086442786069651)
4: ('ReferencePoint.x.Transportation.x.Amount', 0.5451990049751243)
5: ('CheckoutCharge.Amount', 0.5032338308457711)
6: ('GuaranteePayment.x.Amount', 0.5032338308457711)
7: ('MeetingRoom.x.Code.x.Charge.Amount', 0.4857338308457711)
8: ('Recreation.x.Schedule.x.Charge.x.Amount', 0.4857338308457711)
9: ('Service.x.Feature.x.Charge.Amount', 0.4857338308457711)
10: ('Service.x.OperationSchedule.x.Charge.x.Amount', 0.47523383084577114)
11: ('Image.x.ApplicableStart', 0.269928914308548)

** 49 Envelope.Body.OTA_HotelDescriptiveInfoRS.HotelDescriptiveContents.HotelDescriptiveContent.Policies.Policy.PetsPolicies.PetsPolicy.Description.Text
Value: Pets allowed with Restrictions, pets are not allow...
Keyword: (petspolicy,0.6749616499062553)(text,0.08437020623828191)(description,0.07499573887847281)
Important: Text
0: ('PetsPolicy.x.Description.EN-US', 0.6840582921424918)
1: ('RatePolicy.x.Description.x.Text.EN-US', 0.49803408897221746)
2: ('AltDescription.x.Tag.x.Text.EN-US', 0.4184668484745185)
3: ('EnviroImpact.Energy.Description.x.Text.EN-US', 0.4184668484745185)
4: ('EnviroImpact.Recycling.Description.x.Text.EN-US', 0.4184668484745185)
5: ('EnviroImpact.Water.Description.x.Text.EN-US', 0.4184668484745185)
6: ('GuaranteePayment.x.Description.x.Text.EN-US', 0.4184668484745185)
7: ('ContactInfo.x.Address.x.AddressLine.x.Text.EN-US', 0.3837426282597579)
8: ('Hotel.Context.XXX.RatePlan.x.Tag.x.Text.EN-US', 0.36974262825975795)
9: ('Attraction.x.Tag.x.Text.EN-US', 0.3677177433100392)
10: ('Image.x.Tag.x.Text.EN-US', 0.3677177433100392)
11: ('Promotion.x.Tag.x.Text.EN-US', 0.3677177433100392)

** 50 Envelope.Body.OTA_HotelDescriptiveInfoRS.HotelDescriptiveContents.HotelDescriptiveContent.AreaInfo.Recreations.Recreation.CodeDetail
Value: Steam bath
Keyword: (recreations,0.31650172321118036)(recreation,0.31650172321118036)(codedetail,0.18990103392670823)
Important: CodeDetail
0: ('Recreation.x.CodeDetail.EN-US', 0.3240136592152275)
1: ('OTA.Recreation.x.RecreationServiceCode', 0.2834483194738672)
2: ('Recreation.x.Descriptive.EN-US', 0.2793138773832485)
3: ('Recreation.x.RecreationDetail.x.CodeDetail.EN-US', 0.27151365921522747)
4: ('Service.x.OperationSchedule.x.OperationTime.x.Fri', 0.2430526614189148)
5: ('Recreations.LastUpdated', 0.23793077156137651)
6: ('OTA.Recreation.x.ProximityCode', 0.2344829575995194)
7: ('HotelCategory.x.CodeDetail.EN-US', 0.20789681284978026)
8: ('OTA.Recreation.x.RecreationDetail.x.RecreationCode', 0.20298295759951937)
9: ('Recreation.x.Schedule.x.End', 0.1907623247911989)
10: ('Attraction.x.CodeDetail.EN-US', 0.1875482973408796)
11: ('MeetingRoom.x.Code.x.CodeDetail.EN-US', 0.1875482973408796)

** 51 Envelope.Body.OTA_HotelDescriptiveInfoRS.HotelDescriptiveContents.HotelDescriptiveContent.AreaInfo.Recreations.Recreation.Code
Value: 93
Keyword: (recreations,0.39069513289879393)(recreation,0.39069513289879393)(area,0.10655321806330745)
Important: Code
0: ('OTA.Restaurant.x.Cuisine.x.Code', 0.39798309980094454)
1: ('OTA.Restaurant.x.Service.x.Code', 0.39798309980094454)
2: ('Language.x.Code', 0.3944668436048554)
3: ('TimeZone.Code', 0.35946684360485537)
4: ('OTA.Recreation.x.RecreationServiceCode', 0.31707505561843796)
5: ('Image.x.RecordID', 0.3)
6: ('Recreation.x.Descriptive.EN-US', 0.29556223410483584)
7: ('Recreations.LastUpdated', 0.2690919558174934)
8: ('OTA.Recreation.x.ProximityCode', 0.25252907770969124)
9: ('Recreation.x.CodeDetail.EN-US', 0.23151282151360209)
10: ('OTA.Recreation.x.RecreationDetail.x.RecreationCode', 0.22102907770969124)
11: ('Recreation.x.RecreationDetail.x.CodeDetail.EN-US', 0.1965128215136021)

** 52 Envelope.Body.OTA_HotelDescriptiveInfoRS.HotelDescriptiveContents.HotelDescriptiveContent.AreaInfo.Recreations.Recreation.DescriptiveText
Value: Steam room
Keyword: (recreations,0.28017829527881377)(recreation,0.28017829527881377)(descriptivetext,0.21013372145911033)
Important: DescriptiveText
0: ('EnviroImpact.Recycling.EcoDishware', 0.29986379742622377)
1: ('Recreation.x.Descriptive.EN-US', 0.2713590466660602)
2: ('Attraction.x.DescriptiveText.EN-US', 0.22621372691712904)
3: ('Renovation.x.DescriptiveText.EN-US', 0.22621372691712904)
4: ('Restaurant.x.DescriptiveText.EN-US', 0.22621372691712904)
5: ('OTA.Recreation.x.RecreationServiceCode', 0.2251964886746111)
6: ('Recreations.LastUpdated', 0.22267488401710175)
7: ('Recreation.x.Tag.x.Text.EN-US', 0.22090148276175745)
8: ('GuestRoom.x.Feature.x.DescriptiveText.EN-US', 0.1947950257812264)
9: ('GuestRoom.x.Amenity.x.DescriptiveText.EN-US', 0.19471372691712907)
10: ('ReferencePoint.x.DescriptiveText.EN-US', 0.19471372691712907)
11: ('Recreation.x.Schedule.x.Time.x.Text.EN-US', 0.18590148276175744)

** 53 Envelope.Body.OTA_HotelDescriptiveInfoRS.HotelDescriptiveContents.HotelDescriptiveContent.AreaInfo.RefPoints.RefPoint.Distance
Value: 17
Keyword: (distance,0.7176141658900279)(refpoint,0.1435228331780056)(area,0.06523765144454799)
Important: Distance
0: ('Attraction.x.RefPoint.x.Distance', 0.6251887232059645)
1: ('ReferencePoint.x.Distance', 0.5775489282385833)
2: ('Restaurant.x.Distance', 0.5356989748369059)
3: ('OTA.Distance.UnitOfMeasureCode', 0.23685181733457591)
4: ('MeetingRoom.x.Image.x.FileSize', 0.2000343382358551)
5: ('Attraction.x.RefPoint.x.Direction', 0.1419897483690587)
6: ('Attraction.x.RefPoint.x.Latitude', 0.1419897483690587)
7: ('Attraction.x.RefPoint.x.Longitude', 0.1419897483690587)
8: ('OTA.Attraction.x.RefPoint.x.PositionAccuracyCode', 0.12914259086672877)
9: ('OTA.Attraction.x.RefPoint.x.UnitOfMeasureCode', 0.12914259086672877)
10: ('OTA.ReferencePoint.x.RefPointCategoryCode', 0.12914259086672877)
11: ('Attraction.x.RefPoint.x.StateCode', 0.1209897483690587)

** 54 Envelope.Body.OTA_HotelDescriptiveInfoRS.HotelDescriptiveContents.HotelDescriptiveContent.AreaInfo.RefPoints.RefPoint.RefPointCategoryCode
Value: 37
Keyword: (refpointcategorycode,0.6349911190053287)(refpoint,0.12699822380106573)(categorycode,0.09071301700076123)
Important: RefPointCategoryCode
0: ('OTA.ReferencePoint.x.RefPointCategoryCode', 0.6521625222024866)
1: ('Image.x.RecordID', 0.3)
2: ('OTA.HotelCategory.x.HotelCategoryCode', 0.16798845470692716)
3: ('OTA.HotelStatusCode', 0.1664387211367673)
4: ('Attraction.x.RefPoint.x.StateCode', 0.16385968028419182)
5: ('OTA.Attraction.x.RefPoint.x.PositionAccuracyCode', 0.1597646536412078)
6: ('OTA.Attraction.x.RefPoint.x.UnitOfMeasureCode', 0.1597646536412078)
7: ('OTA.Attraction.x.AttractionCategoryCode', 0.15208348134991118)
8: ('OTA.GuestRoom.x.Image.x.CategoryCode', 0.15208348134991118)
9: ('OTA.Image.x.PictureCategoryCode', 0.15208348134991118)
10: ('OTA.Restaurant.x.Image.x.CategoryCode', 0.15208348134991118)
11: ('OTA.Area.UnitOfMeasureCode', 0.1451563055062167)

** 55 Envelope.Body.OTA_HotelDescriptiveInfoRS.HotelDescriptiveContents.HotelDescriptiveContent.AreaInfo.RefPoints.RefPoint.RefPointName
Value: MONTREUIL SUR MER, FRANCE, PAS DE CALAIS
Keyword: (refpointname,0.6508875739644971)(refpoint,0.13017751479289943)(name,0.0929839391377853)
Important: RefPointName
0: ('ReferencePoint.x.RefPointName.EN-US', 0.35776331360946745)
1: ('Restaurant.x.DescriptiveText.EN-US', 0.35445091034533704)
2: ('Name.EN-US', 0.2295266272189357)
3: ('Policy.x.Name.EN-US', 0.16573964497041418)
4: ('GDS_Info.x.GDS_Name', 0.16147928994082839)
5: ('Attraction.x.RefPoint.x.Direction', 0.13855029585798814)
6: ('Attraction.x.RefPoint.x.Distance', 0.13855029585798814)
7: ('Attraction.x.RefPoint.x.Latitude', 0.13855029585798814)
8: ('Attraction.x.RefPoint.x.Longitude', 0.13855029585798814)
9: ('ContactInfo.x.CompanyName.EN-US', 0.1264792899408284)
10: ('OtherHotel.x.HotelName.EN-US', 0.1264792899408284)
11: ('OTA.Attraction.x.RefPoint.x.PositionAccuracyCode', 0.12550295857988164)

** 56 Envelope.Body.OTA_HotelDescriptiveInfoRS.HotelDescriptiveContents.HotelDescriptiveContent.AreaInfo.RefPoints.RefPoint.DescriptiveText
Value: 17 kilometer(s) from Montreuil Sur Mer, France, Pa...
Keyword: (descriptivetext,0.32530629488804397)(refpoint,0.2602450359104352)(text,0.16265314744402198)
Important: DescriptiveText
0: ('Attraction.x.DescriptiveText.EN-US', 0.5616546469919279)
1: ('ReferencePoint.x.DescriptiveText.EN-US', 0.28679600441479214)
2: ('Renovation.x.DescriptiveText.EN-US', 0.2638751584283904)
3: ('Restaurant.x.DescriptiveText.EN-US', 0.2638751584283904)
4: ('GuestRoom.x.Amenity.x.DescriptiveText.EN-US', 0.23237515842839035)
5: ('GuestRoom.x.Feature.x.DescriptiveText.EN-US', 0.23237515842839035)
6: ('Attraction.x.RefPoint.x.Direction', 0.1720722433460076)
7: ('Attraction.x.RefPoint.x.Distance', 0.1720722433460076)
8: ('Attraction.x.RefPoint.x.Latitude', 0.1720722433460076)
9: ('Attraction.x.RefPoint.x.Longitude', 0.1720722433460076)
10: ('OTA.Attraction.x.RefPoint.x.PositionAccuracyCode', 0.16097591888466412)
11: ('OTA.Attraction.x.RefPoint.x.UnitOfMeasureCode', 0.16097591888466412)

** 57 Envelope.Body.OTA_HotelDescriptiveInfoRS.HotelDescriptiveContents.HotelDescriptiveContent.AreaInfo.RefPoints.RefPoint.UnitOfMeasureCode
Value: 1
Keyword: (unitofmeasure,0.41118961551100885)(unitofmeasurecode,0.41118961551100885)(refpoint,0.08223792310220178)
Important: UnitOfMeasureCode
0: ('OTA.Area.UnitOfMeasureCode', 0.6751043378245153)
1: ('OTA.UnitOfMeasure.UnitOfMeasureCode', 0.6672543542556688)
2: ('OTA.Attraction.x.RefPoint.x.UnitOfMeasureCode', 0.6584493098915543)
3: ('OTA.ReferencePoint.x.UnitOfMeasureCode', 0.636179346040092)
4: ('OTA.Distance.UnitOfMeasureCode', 0.6252543542556688)
5: ('OTA.Image.x.UnitOfMeasureCode', 0.6252543542556688)
6: ('OTA.MeetingRoom.x.UnitOfMeasureCode', 0.6252543542556688)
7: ('OTA.Weight.UnitOfMeasureCode', 0.6252543542556688)
8: ('OTA.PetsPolicy.x.UnitOfMeasureCode', 0.6111793460400919)
9: ('OTA.Restaurant.x.Image.x.UnitOfMeasureCode', 0.5976107878777421)
10: ('OTA.MeetingRoom.x.Image.x.UnitOfMeasureCode', 0.597254355921075)
11: ('OTA.Restaurant.x.UnitOfMeasure', 0.22758338810384485)

** 58 Envelope.Body.OTA_HotelDescriptiveInfoRS.HotelDescriptiveContents.HotelDescriptiveContent.AreaInfo.Attractions.Attraction.DescriptiveText
Value: 2 kilometer(s) from Aqualud, Aquatic center for al...
Keyword: (attraction,0.2801782952788138)(attractions,0.2801782952788138)(descriptivetext,0.21013372145911038)
Important: DescriptiveText
0: ('Attraction.x.DescriptiveText.EN-US', 0.3375515360846211)
1: ('ReferencePoint.x.Transportation.x.Description.EN-US', 0.2999366462230682)
2: ('Renovation.x.DescriptiveText.EN-US', 0.22621372691712904)
3: ('Restaurant.x.DescriptiveText.EN-US', 0.22621372691712904)
4: ('Attractions.LastUpdated', 0.2226748840171018)
5: ('Attraction.x.Tag.x.Text.EN-US', 0.22090148276175747)
6: ('GuestRoom.x.Amenity.x.DescriptiveText.EN-US', 0.19471372691712907)
7: ('GuestRoom.x.Feature.x.DescriptiveText.EN-US', 0.19471372691712907)
8: ('ReferencePoint.x.DescriptiveText.EN-US', 0.19471372691712907)
9: ('OTA.Attraction.x.ProximityCode', 0.16635904666606022)
10: ('Attraction.x.ID', 0.16383744200855088)
11: ('Attraction.x.URL', 0.16383744200855088)

** 59 Envelope.Body.OTA_HotelDescriptiveInfoRS.HotelDescriptiveContents.HotelDescriptiveContent.AreaInfo.Attractions.Attraction.AttractionCategoryCode
Value: 44
Keyword: (attractioncategorycode,0.500992642765386)(attraction,0.166997547588462)(attractions,0.166997547588462)
Important: AttractionCategoryCode
0: ('OTA.Attraction.x.AttractionCategoryCode', 0.6508571762232863)
1: ('Recreation.x.Schedule.x.Time.x.End', 0.29999921321868894)
2: ('OTA.Attraction.x.ProximityCode', 0.1981189419595936)
3: ('Attraction.x.CodeDetail.EN-US', 0.1791159640312974)
4: ('Attractions.LastUpdated', 0.175138969987154)
5: ('OTA.HotelStatusCode', 0.16455243489431273)
6: ('OTA.HotelCategory.x.HotelCategoryCode', 0.1620822141772743)
7: ('OTA.Restaurant.x.Image.x.CategoryCode', 0.14657923687186808)
8: ('OTA.GuestRoom.x.Image.x.CategoryCode', 0.14657923624897815)
9: ('OTA.Image.x.PictureCategoryCode', 0.14657923624897815)
10: ('Attraction.x.DescriptiveText.EN-US', 0.14157246292187317)
11: ('OTA.Area.UnitOfMeasureCode', 0.14111386196426484)

** 60 Envelope.Body.OTA_HotelDescriptiveInfoRS.HotelDescriptiveContents.HotelDescriptiveContent.AreaInfo.Attractions.Attraction.AttractionName
Value: RUE SAINT JEAN, MAIN STREET OF THE STATION. 7 DAYS...
Keyword: (attractionname,0.5108359133126935)(attraction,0.17027863777089783)(attractions,0.17027863777089783)
Important: AttractionName
0: ('Attraction.x.AttractionName.EN-US', 0.36835913312693497)
1: ('AltDescription.x.Description.EN-US', 0.2999960660934448)
2: ('Name.EN-US', 0.2253250773993808)
3: ('Attractions.LastUpdated', 0.17651702786377707)
4: ('GDS_Info.x.GDS_Name', 0.15685758513931886)
5: ('Attraction.x.DescriptiveText.EN-US', 0.1422910216718266)
6: ('OTA.Attraction.x.ProximityCode', 0.1422910216718266)
7: ('Attraction.x.ID', 0.14075851393188854)
8: ('Attraction.x.URL', 0.14075851393188854)
9: ('ContactInfo.x.CompanyName.EN-US', 0.12185758513931888)
10: ('OtherHotel.x.HotelName.EN-US', 0.12185758513931888)
11: ('OTA.Attraction.x.AttractionCategoryCode', 0.12129102167182662)

** 61 Envelope.Body.OTA_HotelDescriptiveInfoRS.HotelDescriptiveContents.HotelDescriptiveContent.AffiliationInfo.Awards.Award.Rating
Value: 4 Star
Keyword: (rating,0.48611111111111116)(award,0.48611111111111116)(ota,0.006944444444444445)
Important: Rating
0: ('Award.x.Rating.EN-US', 0.6941666666666666)
1: ('Award.x.RatingSymbol', 0.3441666666666667)
2: ('GuestRoom.x.Feature.x.DescriptiveText.EN-US', 0.3297480073769887)
3: ('Award.x.Date', 0.2070833333333333)
4: ('Award.x.OfficialAppointment', 0.17208333333333334)
5: ('Award.x.Provider.EN-US', 0.17208333333333334)
6: ('EnviroImpact.Energy.EnergyStarRating', 0.15458333333333332)
7: ('OTA.HotelStatusCode', 0.10791666666666666)
8: ('Recreation.x.Descriptive.EN-US', 0.10645833333333332)
9: ('OTA.HotelCategory.x.HotelCategoryCode', 0.07291666666666666)
10: ('OTA.Service.x.HotelAmenityCode', 0.07291666666666666)
11: ('GDS_Info.x.GDS_Name', 0.07145833353441304)

** 62 Envelope.Body.OTA_HotelDescriptiveInfoRS.HotelDescriptiveContents.HotelDescriptiveContent.MultimediaDescriptions.MultimediaDescription.TextItems.TextItem.Title
Value: Driving directions
Keyword: (title,0.7177442324124181)(text,0.08971802905155227)(description,0.07974935915693535)
Important: Title
0: ('AltDescription.x.Title', 0.887473654229564)
1: ('Promotion.x.Title.EN-US', 0.5357262888066078)
2: ('Description.EN-US', 0.2267473654229564)
3: ('Hotel.Context.XXX.RatePlan.x.Description.EN-US', 0.14274138422101962)
4: ('AltDescription.x.Tag.x.Text.EN-US', 0.14058815152378237)
5: ('EnviroImpact.Energy.Description.x.Text.EN-US', 0.14058815152378237)
6: ('EnviroImpact.Recycling.Description.x.Text.EN-US', 0.14058815152378237)
7: ('EnviroImpact.Water.Description.x.Text.EN-US', 0.14058815152378237)
8: ('GuaranteePayment.x.Description.x.Text.EN-US', 0.14058815152378237)
9: ('Recreation.x.Schedule.x.Time.x.Text.EN-US', 0.13891341498148674)
10: ('Attraction.x.DescriptiveText.EN-US', 0.1259940187980632)
11: ('Renovation.x.DescriptiveText.EN-US', 0.1259940187980632)

** 63 Envelope.Body.OTA_HotelDescriptiveInfoRS.HotelDescriptiveContents.HotelDescriptiveContent.MultimediaDescriptions.MultimediaDescription.TextItems.TextItem.Description
Value: ·From: Paris. Take A16 in direction of Amiens.
Tak...
Keyword: (text,0.31786074672048437)(description,0.28254288597376387)(time,0.2542885973763875)
Important: Description
0: ('AltDescription.x.Description.EN-US', 0.7443340060544903)
1: ('Description.EN-US', 0.5493340060544903)
2: ('Hotel.Context.XXX.RatePlan.x.Description.EN-US', 0.5187134207870837)
3: ('GuestRoom.x.Description.EN-US', 0.44433400605449036)
4: ('LoyaltyProgram.x.Description.EN-US', 0.44433400605449036)
5: ('Promotion.x.Description.EN-US', 0.44433400605449036)
6: ('PolicyInfo.Description.EN-US', 0.43096266397578203)
7: ('CheckoutCharge.Description.EN-US', 0.40933400605449044)
8: ('Policy.x.Description.EN-US', 0.40933400605449044)
9: ('Recreation.x.RecreationDetail.x.Description.EN-US', 0.40933400605449044)
10: ('CommissionPolicy.Description.EN-US', 0.3918340060544904)
11: ('FeePolicy.x.Description.EN-US', 0.3918340060544904)

** 64 Envelope.Body.OTA_HotelDescriptiveInfoRS.HotelDescriptiveContents.HotelDescriptiveContent.ContactInfos.ContactInfo.Addresses.Address.AddressLine
Value: 4 boulevard de la Canche
Keyword: (addressline,0.6896551724137933)(address,0.17241379310344832)(contactinfo,0.09852216748768475)
Important: AddressLine
0: ('ContactInfo.x.Address.x.AddressLine.x.Text.EN-US', 0.37179310344827593)
1: ('ReferencePoint.x.Transportation.x.CodeDetail.EN-US', 0.2944215953350067)
2: ('GuaranteePayment.x.Address.x.AddressLine.x.Text.EN-US', 0.2650344827586207)
3: ('ContactInfo.x.Address.x.CityName.EN-US', 0.18496551724137927)
4: ('ContactInfo.x.Address.x.County.EN-US', 0.18496551724137927)
5: ('ContactInfo.x.Address.x.StateCode', 0.18496551724137927)
6: ('ContactInfo.x.Address.x.StateName.EN-US', 0.18496551724137927)
7: ('ContactInfo.x.Email.x.MailAddress', 0.18496551724137927)
8: ('OTA.ContactInfo.x.Address.x.AddressUseTypeCode', 0.16603448275862068)
9: ('ContactInfo.x.Address.x.CountryCode', 0.1639655172413793)
10: ('ContactInfo.x.Address.x.CountryName.EN-US', 0.1639655172413793)
11: ('ContactInfo.x.Address.x.PostalCode', 0.1639655172413793)

** 65 Envelope.Body.OTA_HotelDescriptiveInfoRS.HotelDescriptiveContents.HotelDescriptiveContent.ContactInfos.ContactInfo.Addresses.Address.CityName
Value: Le Touquet
Keyword: (cityname,0.6278026905829597)(address,0.15695067264573992)(contactinfo,0.08968609865470852)
Important: CityName
0: ('ContactInfo.x.Address.x.CityName.EN-US', 0.41434977578475335)
1: ('GuaranteePayment.x.Address.x.CityName.EN-US', 0.3096322869955157)
2: ('GuestRoom.x.Description.EN-US', 0.29469854235649107)
3: ('ContactInfo.x.Address.x.StateName.EN-US', 0.2405112107623318)
4: ('Name.EN-US', 0.22883408071748879)
5: ('ContactInfo.x.Address.x.CountryName.EN-US', 0.21251121076233181)
6: ('ContactInfo.x.CompanyName.EN-US', 0.19705156950672642)
7: ('ContactInfo.x.Address.x.AddressLine.x.Text.EN-US', 0.17967713004484304)
8: ('ContactInfo.x.Address.x.County.EN-US', 0.17967713004484304)
9: ('ContactInfo.x.Address.x.StateCode', 0.17967713004484304)
10: ('ContactInfo.x.Email.x.MailAddress', 0.17967713004484304)
11: ('ContactInfo.x.CompanyName.Department.EN-US', 0.16555156950672642)

** 66 Envelope.Body.OTA_HotelDescriptiveInfoRS.HotelDescriptiveContents.HotelDescriptiveContent.ContactInfos.ContactInfo.Addresses.Address.PostalCode
Value: 62520
Keyword: (postalcode,0.6519261454296786)(address,0.16298153635741966)(contactinfo,0.09313230648995408)
Important: PostalCode
0: ('ContactInfo.x.Address.x.PostalCode', 0.6941326646911329)
1: ('GuaranteePayment.x.Address.x.PostalCode', 0.6026191018919534)
2: ('Location.Longitude', 0.3)
3: ('ContactInfo.x.Address.x.StateCode', 0.22900524276270798)
4: ('ContactInfo.x.Address.x.CountryCode', 0.20100524276270795)
5: ('OTA.ContactInfo.x.Address.x.AddressUseTypeCode', 0.194211021198997)
6: ('ContactInfo.x.Address.x.AddressLine.x.Text.EN-US', 0.1817396854342375)
7: ('ContactInfo.x.Address.x.CityName.EN-US', 0.1817396854342375)
8: ('ContactInfo.x.Address.x.County.EN-US', 0.1817396854342375)
9: ('ContactInfo.x.Address.x.StateName.EN-US', 0.1817396854342375)
10: ('ContactInfo.x.Email.x.MailAddress', 0.1817396854342375)
11: ('OTA.HotelStatusCode', 0.16667711420104853)

** 67 Envelope.Body.OTA_HotelDescriptiveInfoRS.HotelDescriptiveContents.HotelDescriptiveContent.ContactInfos.ContactInfo.Addresses.Address.CountryName.Code
Value: FR
Keyword: (countryname,0.38003758613489247)(count,0.38003758613489247)(address,0.09500939653372312)
Important: Code
0: ('ContactInfo.x.Address.x.CountryName.EN-US', 0.41351012737523485)
1: ('OTA.Restaurant.x.Cuisine.x.Code', 0.3892096471079557)
2: ('OTA.Restaurant.x.Service.x.Code', 0.3892096471079557)
3: ('Language.x.Code', 0.38806953434955105)
4: ('TimeZone.Code', 0.3530695343495511)
5: ('GuaranteePayment.x.Address.x.CountryName.EN-US', 0.33096942095486537)
6: ('ContactInfo.x.Address.x.CountryCode', 0.2903706410524118)
7: ('ContactInfo.x.Address.x.County.EN-US', 0.2803011067028607)
8: ('ContactInfo.x.Phone.x.CountryAccessCode', 0.23541866778032985)
9: ('Name.EN-US', 0.22140112758404673)
10: ('ContactInfo.x.Address.x.CityName.EN-US', 0.21189434119858008)
11: ('ContactInfo.x.Address.x.StateName.EN-US', 0.21189434119858008)

** 68 Envelope.Body.OTA_HotelDescriptiveInfoRS.HotelDescriptiveContents.HotelDescriptiveContent.ContactInfos.ContactInfo.Phones.Phone.PhoneNumber
Value: +33 3 21 06 88 88
Keyword: (phonenumber,0.6521739130434784)(phone,0.21739130434782614)(contactinfo,0.09316770186335405)
Important: PhoneNumber
0: ('ContactInfo.x.Phone.x.PhoneNumber', 0.6941304347826086)
1: ('EnviroImpact.Recycling.EcoDishware', 0.3)
2: ('OTA.ContactInfo.x.Phone.x.PhoneTechTypeCode', 0.1741304347826087)
3: ('ContactInfo.x.Phone.x.CountryAccessCode', 0.17217391304347826)
4: ('OTA.ContactInfo.x.Phone.x.PhoneLocationTypeCode', 0.16246376811594204)
5: ('ContactInfo.x.URL.x.URL', 0.16152173913043477)
6: ('ContactInfo.x.Phone.x.AreaCityCode', 0.15717391304347825)
7: ('ContactInfo.x.CompanyName.EN-US', 0.12652173913043477)
8: ('ContactInfo.x.LastUpdated', 0.12652173913043477)
9: ('OTA.HotelStatusCode', 0.10891304347826086)
10: ('Recreation.x.Descriptive.EN-US', 0.10695652173913042)
11: ('ContactInfo.x.Address.x.AddressLine.x.Text.EN-US', 0.10552173913043478)

** 69 Envelope.Body.OTA_HotelDescriptiveInfoRS.HotelDescriptiveContents.HotelDescriptiveContent.ContactInfos.ContactInfo.Phones.Phone.PhoneTechType
Value: 1
Keyword: (phone,0.4761904761904762)(type,0.2380952380952381)(contactinfo,0.20408163265306123)
Important: PhoneTechType
0: ('OTA.ContactInfo.x.Phone.x.PhoneTechTypeCode', 0.33267857142857143)
1: ('OTA.ContactInfo.x.Phone.x.PhoneLocationTypeCode', 0.31809523809523804)
2: ('ContactInfo.x.Phone.x.PhoneNumber', 0.3046428571428571)
3: ('ContactInfo.x.Phone.x.CountryAccessCode', 0.2521428571428571)
4: ('ContactInfo.x.Phone.x.AreaCityCode', 0.23714285714285713)
5: ('OTA.ContactInfo.x.Address.x.AddressUseTypeCode', 0.2064285714285714)
6: ('OTA.ContactInfo.x.Email.x.EmailTypeCode', 0.2064285714285714)
7: ('ContactInfo.x.URL.x.URL', 0.1871428571428571)
8: ('ContactInfo.x.LastUpdated', 0.15214285753288775)
9: ('ContactInfo.x.CompanyName.EN-US', 0.15214285714285714)
10: ('OTA.OtherHotel.x.SegmentTypeCode', 0.14857142857142855)
11: ('OTA.Restaurant.x.InfoCode.x.TypeCode', 0.14857142857142855)

** 70 Envelope.Body.OTA_HotelDescriptiveInfoRS.HotelDescriptiveContents.HotelDescriptiveContent.ContactInfos.ContactInfo.Phones.Phone.PhoneLocationType
Value: 7
Keyword: (location,0.5882352941176472)(phone,0.19607843137254904)(type,0.09803921568627452)
Important: PhoneLocationType
0: ('OTA.ContactInfo.x.Phone.x.PhoneLocationTypeCode', 0.3464705882352941)
1: ('OTA.GuestRoom.x.Type.x.RoomLocationCode', 0.23588235294117646)
2: ('Location.Latitude', 0.2285294117647059)
3: ('Location.Longitude', 0.2285294117647059)
4: ('ContactInfo.x.Phone.x.PhoneNumber', 0.21808823529411764)
5: ('OTA.ContactInfo.x.Phone.x.PhoneTechTypeCode', 0.21419117647058825)
6: ('OTA.LocationCategory.x.LocationCode', 0.20929411764705882)
7: ('LocationCategory.x.CodeDetail.EN-US', 0.1760294117647059)
8: ('ContactInfo.x.Phone.x.CountryAccessCode', 0.16558823529411762)
9: ('ContactInfo.x.URL.x.URL', 0.15941176470588234)
10: ('ContactInfo.x.Phone.x.AreaCityCode', 0.15058823529411763)
11: ('OTA.ContactInfo.x.Address.x.AddressUseTypeCode', 0.14676470588235294)

** 71 
Value: 
Keyword: 
Important: 
0: ('MeetingRoom.x.RoomName.EN-US', 0.023733028024435044)
1: ('ContactInfo.x.Address.x.PostalCode', 0.017875165119767188)
2: ('Image.x.Width', 0.013242718577384948)
3: ('PetsPolicy.x.NonRefundableFee', 0.011186720430850982)
4: ('ReferencePoint.x.RefPointName.EN-US', 0.006502118334174156)
5: ('GuestRoom.x.Type.x.Size', 0.006008694693446159)
6: ('OTA.GuestRoom.x.Amenity.x.RoomAmenityCode', 0.005795214883983135)
7: ('MeetingRoom.x.Format.x.Capacity', 0.005313351564109325)
8: ('GuestRoom.x.Image.x.Width', 0.005205114372074604)
9: ('MeetingRoom.LargestSpace', 0.004965507052838802)
10: ('ContactInfo.x.Phone.x.AreaCityCode', 0.004541383590549231)
11: ('OTA.MeetingRoom.x.Code.x.MeetingRoomCode', 0.004442818835377693)

